   ____                           _           _   _              ____                            ____  ____  _
  / ___| ___ _ __   ___ _ __ __ _| |_ ___  __| | | |__  _   _   / ___|__ _ ___ _ __   ___ ___   / ___||  _ \| |
 | |  _ / _ \ '_ \ / _ \ '__/ _` | __/ _ \/ _` | | '_ \| | | | | |   / _` / __| '_ \ / __/ _ \  \___ \| |_) | |
 | |_| |  __/ | | |  __/ | | (_| | ||  __/ (_| | | |_) | |_| | | |__| (_| \__ \ |_) | (_| (_) |  ___) |  __/| |___
  \____|\___|_| |_|\___|_|  \__,_|\__\___|\__,_| |_.__/ \__, |  \____\__,_|___/ .__/ \___\___/  |____/|_|   |_____|
                                                        |___/                 |_|

