{
  "menus": [
    {
      "prefix": "com.caspco.spl.projectgenerator.main",
      "expanded": true,
      "details": [
        {
          "state": "classModel.uploader",
          "labelKey": "XmlUploader"
        }
      ]
    }
  ]
}